p8105_hw3_zf2212
…
# arrange the data 
brfss_average = brfss %>% 
  group_by(year, locationabbr) %>% 
  select(year, locationabbr, locationdesc, response, data_value) %>% 
  spread(key = "response", value = "data_value") %>% 
  janitor::clean_names() %>% # compute the average proportion
  summarize(excellent_average = mean(excellent, na.rm = TRUE),
            fair_average = mean(fair, na.rm = TRUE),
            good_average = mean(good, na.rm = TRUE),
            poor_average = mean(poor, na.rm = TRUE),
            very_good_ave = mean(very_good, na.rm = TRUE)) 
brfss_average

## # A tibble: 443 x 7
## # Groups:   year [?]
##     year locationabbr excellent_avera fair_average good_average
##    <int> <chr>                   <dbl>        <dbl>        <dbl>
##  1  2002 AK                       27.9         8.6          23.8
##  2  2002 AL                       18.5        12.1          32.7
##  3  2002 AR                       24.1        12.5          29.9
##  4  2002 AZ                       24.1         8.9          29.4
##  5  2002 CA                       22.7        14.3          28.7
##  6  2002 CO                       23.1        11.2          30.3
##  7  2002 CT                       29.1         8.73         25.0
##  8  2002 DC                       29.3         8.3          28.1
##  9  2002 DE                       20.9        11.1          29.8
## 10  2002 FL                       25.7         9.67         28.9
## # ... with 433 more rows, and 2 more variables: poor_average <dbl>,
## #   very_good_ave <dbl>
…
