…
# arrange the data 
brfss_average = brfss %>% 
  group_by(year, locationabbr) %>% 
  select(year, locationabbr, locationdesc, response, data_value) %>% 
  spread(key = "response", value = "data_value") %>% 
  janitor::clean_names() %>% # compute the average proportion
  summarize(excellent_average = mean(excellent, na.rm = TRUE),
            fair_average = mean(fair, na.rm = TRUE),
            good_average = mean(good, na.rm = TRUE),
            poor_average = mean(poor, na.rm = TRUE),
            very_good_ave = mean(very_good, na.rm = TRUE)) 
brfss_average
```

    ## # A tibble: 443 x 7
    ## # Groups:   year [?]
    ##     year locationabbr excellent_avera… fair_average good_average
    ##    <int> <chr>                   <dbl>        <dbl>        <dbl>
    ##  1  2002 AK                       27.9         8.6          23.8
    ##  2  2002 AL                       18.5        12.1          32.7
    ##  3  2002 AR                       24.1        12.5          29.9
    ##  4  2002 AZ                       24.1         8.9          29.4
    ##  5  2002 CA                       22.7        14.3          28.7
    ##  6  2002 CO                       23.1        11.2          30.3
    ##  7  2002 CT                       29.1         8.73         25.0
    ##  8  2002 DC                       29.3         8.3          28.1
    ##  9  2002 DE                       20.9        11.1          29.8
    ## 10  2002 FL                       25.7         9.67         28.9
    ## # ... with 433 more rows, and 2 more variables: poor_average <dbl>,
    ## #   very_good_ave <dbl>
…
Problem 2 Instacart
-------------------

### 2.1

Write a short description of the dataset, noting the size and structure of the data, describing some key variables, and giving illstrative examples of observations.

``` r
# import and clean
data("instacart")
instacart %>% 
  janitor::clean_names()
```

    ## # A tibble: 1,384,617 x 15
    ##    order_id product_id add_to_cart_ord… reordered user_id eval_set
    ##       <int>      <int>            <int>     <int>   <int> <chr>   
    ##  1        1      49302                1         1  112108 train   
    ##  2        1      11109                2         1  112108 train   
    ##  3        1      10246                3         0  112108 train   
    ##  4        1      49683                4         0  112108 train   
    ##  5        1      43633                5         1  112108 train   
    ##  6        1      13176                6         0  112108 train   
    ##  7        1      47209                7         0  112108 train   
    ##  8        1      22035                8         1  112108 train   
    ##  9       36      39612                1         0   79431 train   
    ## 10       36      19660                2         1   79431 train   
    ## # ... with 1,384,607 more rows, and 9 more variables: order_number <int>,
    ## #   order_dow <int>, order_hour_of_day <int>,
    ## #   days_since_prior_order <int>, product_name <chr>, aisle_id <int>,
    ## #   department_id <int>, aisle <chr>, department <chr>
…
Problem 3 NY NOAA
-----------------

### 3.1

Write a short description of the dataset, noting the size and structure of the data, describing some key variables, and indicating the extent to which missing data is an issue.

``` r
data(ny_noaa)
ny_noaa %>% 
  janitor::clean_names()
```

    ## # A tibble: 2,595,176 x 7
    ##    id          date        prcp  snow  snwd tmax  tmin 
    ##    <chr>       <date>     <int> <int> <int> <chr> <chr>
    ##  1 US1NYAB0001 2007-11-01    NA    NA    NA <NA>  <NA> 
    ##  2 US1NYAB0001 2007-11-02    NA    NA    NA <NA>  <NA> 
    ##  3 US1NYAB0001 2007-11-03    NA    NA    NA <NA>  <NA> 
    ##  4 US1NYAB0001 2007-11-04    NA    NA    NA <NA>  <NA> 
    ##  5 US1NYAB0001 2007-11-05    NA    NA    NA <NA>  <NA> 
    ##  6 US1NYAB0001 2007-11-06    NA    NA    NA <NA>  <NA> 
    ##  7 US1NYAB0001 2007-11-07    NA    NA    NA <NA>  <NA> 
    ##  8 US1NYAB0001 2007-11-08    NA    NA    NA <NA>  <NA> 
    ##  9 US1NYAB0001 2007-11-09    NA    NA    NA <NA>  <NA> 
    ## 10 US1NYAB0001 2007-11-10    NA    NA    NA <NA>  <NA> 
    ## # ... with 2,595,166 more rows
…
